{
	"info": {
		"_postman_id": "75825f32-4d9d-4b8d-850d-f9006f0c7aa0",
		"name": "irangard",
		"schema": "https://schema.getpostman.com/json/collection/v2.1.0/collection.json"
	},
	"item": [
		{
			"name": "مدیریت کاربران",
			"item": [
				{
					"name": "لاگین",
					"request": {
						"method": "POST",
						"header": [],
						"body": {
							"mode": "raw",
							"raw": "{\r\n    \"username\": \"irangard\",\r\n    \"password\": \"iran123\"\r\n}",
							"options": {
								"raw": {
									"language": "json"
								}
							}
						},
						"url": {
							"raw": "{{server}}/system_management/login/",
							"host": [
								"{{server}}"
							],
							"path": [
								"system_management",
								"login",
								""
							]
						}
					},
					"response": []
				},
				{
					"name": "ثبت نام",
					"request": {
						"method": "POST",
						"header": [],
						"body": {
							"mode": "raw",
							"raw": "{\r\n    \"username\": \"irangard2\",\r\n    \"password\": \"iran123\",\r\n    \"password2\": \"iran123\",\r\n    \"first_name\": \"mohammad\",\r\n    \"last_name\": \"esmaeely\"\r\n}",
							"options": {
								"raw": {
									"language": "json"
								}
							}
						},
						"url": {
							"raw": "{{server}}/system_management/register/",
							"host": [
								"{{server}}"
							],
							"path": [
								"system_management",
								"register",
								""
							]
						}
					},
					"response": []
				}
			]
		},
		{
			"name": "مدیریت پست ها",
			"item": [
				{
					"name": "مشاهده ی تمام پست ها",
					"request": {
						"method": "GET",
						"header": [],
						"url": {
							"raw": "{{server}}/posts_management/post/",
							"host": [
								"{{server}}"
							],
							"path": [
								"posts_management",
								"post",
								""
							]
						}
					},
					"response": []
				},
				{
					"name": "افزودن پست",
					"request": {
						"method": "POST",
						"header": [
							{
								"key": "Authorization",
								"value": "Token  {{token}}",
								"type": "text"
							}
						],
						"body": {
							"mode": "formdata",
							"formdata": [
								{
									"key": "title",
									"value": "new post",
									"type": "text"
								},
								{
									"key": "description",
									"value": "this is new post.",
									"type": "text"
								},
								{
									"key": "image",
									"type": "file",
									"src": "/C:/Users/Mohammad/Pictures/Screenshots/Screenshot (5).png"
								}
							]
						},
						"url": {
							"raw": "{{server}}/posts_management/post/",
							"host": [
								"{{server}}"
							],
							"path": [
								"posts_management",
								"post",
								""
							]
						}
					},
					"response": []
				},
				{
					"name": "تغییر پست",
					"request": {
						"method": "PUT",
						"header": [
							{
								"key": "Authorization",
								"value": "Token  {{token}}",
								"type": "text"
							}
						],
						"body": {
							"mode": "formdata",
							"formdata": [
								{
									"key": "title",
									"value": "new post",
									"type": "text"
								},
								{
									"key": "description",
									"value": "this",
									"type": "text"
								},
								{
									"key": "image",
									"type": "file",
									"src": "/C:/Users/Mohammad/Pictures/Screenshots/Screenshot (5).png"
								},
								{
									"key": "pk",
									"value": "4",
									"type": "text"
								}
							]
						},
						"url": {
							"raw": "{{server}}/posts_management/post/",
							"host": [
								"{{server}}"
							],
							"path": [
								"posts_management",
								"post",
								""
							]
						}
					},
					"response": []
				},
				{
					"name": "حذف پست",
					"request": {
						"method": "DELETE",
						"header": [
							{
								"key": "Authorization",
								"value": "Token  {{token}}",
								"type": "text"
							}
						],
						"body": {
							"mode": "raw",
							"raw": "",
							"options": {
								"raw": {
									"language": "json"
								}
							}
						},
						"url": {
							"raw": "{{server}}/posts_management/post/?pk=3",
							"host": [
								"{{server}}"
							],
							"path": [
								"posts_management",
								"post",
								""
							],
							"query": [
								{
									"key": "pk",
									"value": "3"
								}
							]
						}
					},
					"response": []
				}
			]
		}
	],
	"event": [
		{
			"listen": "prerequest",
			"script": {
				"type": "text/javascript",
				"exec": [
					""
				]
			}
		},
		{
			"listen": "test",
			"script": {
				"type": "text/javascript",
				"exec": [
					""
				]
			}
		}
	],
	"variable": [
		{
			"key": "server",
			"value": "127.0.0.1:8000"
		},
		{
			"key": "token",
			"value": "2ea22f79f789e42580a2fbfc7a2fcd705cefa921"
		}
	]
}